<?xml version="1.0" encoding="UTF-8"?>
<svg width="16px" height="16px" viewBox="0 0 16 16" version="1.1" xmlns="http://www.w3.org/2000/svg" xmlns:xlink="http://www.w3.org/1999/xlink">
    <!-- Generator: Sketch 48.2 (47327) - http://www.bohemiancoding.com/sketch -->
    <title>icon/16px/graph-line-16px</title>
    <desc>Created with Sketch.</desc>
    <defs>
        <path d="M11.0598691,5.99824798 L10.001752,5.99824798 C9.63323965,5.99824798 9.33450135,5.69950968 9.33450135,5.3309973 C9.33450135,4.96248493 9.63323965,4.66374663 10.001752,4.66374663 L12.6707547,4.66374663 C13.0392671,4.66374663 13.3380054,4.96248493 13.3380054,5.3309973 L13.3380054,8 C13.3380054,8.36851237 13.0392671,8.66725067 12.6707547,8.66725067 C12.3022423,8.66725067 12.003504,8.36851237 12.003504,8 L12.003504,6.94188293 L9.80631882,9.13906815 C9.54574123,9.39964575 9.12326147,9.39964575 8.86268387,9.13906815 L7.33274933,7.6091336 L5.13556411,9.80631882 C4.87498651,10.0668964 4.45250675,10.0668964 4.19192915,9.80631882 C3.93135156,9.54574123 3.93135156,9.12326147 4.19192915,8.86268387 L6.86093185,6.19368118 C7.12150945,5.93310358 7.54398921,5.93310358 7.8045668,6.19368118 L9.33450135,7.72361572 L11.0598691,5.99824798 Z M14.0052561,11.3362534 C14.3737684,11.3362534 14.6725067,11.6349917 14.6725067,12.003504 C14.6725067,12.3720164 14.3737684,12.6707547 14.0052561,12.6707547 L3.32596861,12.6707547 C2.22171241,12.6707547 1.32749326,11.7696751 1.32749326,10.6633109 L1.32749326,3.99649596 C1.32749326,3.62798359 1.62623156,3.32924528 1.99474394,3.32924528 C2.36325631,3.32924528 2.66199461,3.62798359 2.66199461,3.99649596 L2.66199461,10.6633109 C2.66199461,11.0349238 2.96102994,11.3362534 3.32596861,11.3362534 L14.0052561,11.3362534 Z" id="path-1"></path>
    </defs>
    <g id="Symbols" stroke="none" stroke-width="1" fill="none" fill-rule="evenodd">
        <g id="icon/16px/graph-line">
            <mask id="mask-2" fill="white">
                <use xlink:href="#path-1"></use>
            </mask>
            <use id="Combined-Shape" fill="#3F4F71" fill-rule="nonzero" xlink:href="#path-1"></use>
        </g>
    </g>
</svg>