<?xml version="1.0" encoding="UTF-8"?>
<svg width="16px" height="16px" viewBox="0 0 16 16" version="1.1" xmlns="http://www.w3.org/2000/svg" xmlns:xlink="http://www.w3.org/1999/xlink">
    <!-- Generator: Sketch 48.2 (47327) - http://www.bohemiancoding.com/sketch -->
    <title>icon/16px/lock-filled-16px</title>
    <desc>Created with Sketch.</desc>
    <defs>
        <path d="M8,11.875 C7.171,11.875 6.5,11.204 6.5,10.375 C6.5,9.546 7.171,8.875 8,8.875 C8.829,8.875 9.5,9.546 9.5,10.375 C9.5,11.204 8.829,11.875 8,11.875 Z M6.75,3.875 C6.75,3.186 7.311,2.625 8,2.625 C8.689,2.625 9.25,3.186 9.25,3.875 L9.25,5.875 L6.75,5.875 L6.75,3.875 Z M11.5,5.875 L10.75,5.875 L10.75,3.875 C10.75,2.358 9.517,1.125 8,1.125 C6.483,1.125 5.25,2.358 5.25,3.875 L5.25,5.875 L4.5,5.875 C3.4,5.875 2.5,6.775 2.5,7.875 L2.5,12.875 C2.5,13.975 3.4,14.875 4.5,14.875 L11.5,14.875 C12.6,14.875 13.5,13.975 13.5,12.875 L13.5,7.875 C13.5,6.775 12.6,5.875 11.5,5.875 Z" id="path-1"></path>
    </defs>
    <g id="Symbols" stroke="none" stroke-width="1" fill="none" fill-rule="evenodd">
        <g id="icon/16px/lock-filled">
            <mask id="mask-2" fill="white">
                <use xlink:href="#path-1"></use>
            </mask>
            <use id="lock-filled" fill="#42526E" xlink:href="#path-1"></use>
        </g>
    </g>
</svg>
