<?xml version="1.0" encoding="UTF-8"?>
<svg width="16px" height="16px" viewBox="0 0 16 16" version="1.1" xmlns="http://www.w3.org/2000/svg" xmlns:xlink="http://www.w3.org/1999/xlink">
    <!-- Generator: Sketch 48.2 (47327) - http://www.bohemiancoding.com/sketch -->
    <title>icon/16px/notification-direct-16px</title>
    <desc>Created with Sketch.</desc>
    <defs>
        <path d="M1.47463428,7.42644856 L1.47463428,6.12139922 L2.79266248,6.12139922 C2.79368564,6.12139922 2.79319255,3.07394249 2.79277808,1.1454688 L4.09746058,1.1454688 L4.09746058,6.1175763 C4.09746058,6.84044649 3.51838847,7.42644856 2.79266248,7.42644856 L1.47463428,7.42644856 Z M5.77199859,13.4375589 C5.26237683,12.9279372 5.26237683,12.1011884 5.77199859,11.5915667 L7.61799087,13.4375589 C7.10836911,13.9471807 6.28162036,13.9471807 5.77199859,13.4375589 Z M8.90295518,5.37822681 C9.54634449,4.73549001 10.3894064,4.41379535 11.2324682,4.41379535 C11.8667222,4.41379535 12.5016287,4.59650226 13.051707,4.96126355 C13.0647575,4.9442979 13.0797656,4.92863731 13.0947736,4.91297672 C13.3525209,4.655882 13.7694841,4.655882 14.0265788,4.91297672 C14.2836736,5.17072396 14.2836736,5.58768722 14.0265788,5.84412942 C14.0109183,5.85979001 13.9946051,5.87479808 13.978292,5.88784857 C14.8272266,7.16744944 14.6882389,8.90838524 13.5606762,10.0352953 C12.7891039,10.8072281 11.7594816,12.2406097 11.2689403,13.2208763 L10.5942991,14.5690367 C10.4318205,14.895299 10.0898975,14.9501111 9.83019272,14.6910588 L4.24719169,9.10871032 C3.9881394,8.84965802 4.04621409,8.50577753 4.3692138,8.34395141 L5.71765473,7.6698712 C6.70527525,7.17616367 8.13902582,6.14251297 8.90295518,5.37822681 Z M10.364491,12.2754879 C10.8820442,11.300662 11.9349486,9.87676908 12.6991418,9.11221905 C13.3710228,8.44072691 13.4702685,7.39079286 12.9518147,6.60932636 C12.8282634,6.42309722 12.3914854,6.04891337 12.3914854,6.04891337 C12.0650657,5.83246183 11.6831943,5.71884468 11.2934759,5.71884468 C10.7683201,5.71884468 10.2658767,5.92247342 9.88660379,6.30120447 L9.75474684,6.433123 C8.97344014,7.21479463 7.53642133,8.25020325 6.55225413,8.74218432 L6.04230693,8.99710478 L10.0026637,12.9569996 L10.364491,12.2754879 Z" id="path-1"></path>
    </defs>
    <g id="Symbols" stroke="none" stroke-width="1" fill="none" fill-rule="evenodd">
        <g id="icon/16px/notification-direct">
            <mask id="mask-2" fill="white">
                <use xlink:href="#path-1"></use>
            </mask>
            <use id="Combined-Shape" fill="#42526E" xlink:href="#path-1"></use>
        </g>
    </g>
</svg>