<?xml version="1.0" encoding="UTF-8"?>
<svg width="16px" height="16px" viewBox="0 0 16 16" version="1.1" xmlns="http://www.w3.org/2000/svg" xmlns:xlink="http://www.w3.org/1999/xlink">
    <!-- Generator: Sketch 48.2 (47327) - http://www.bohemiancoding.com/sketch -->
    <title>confluence/16px/page-layout-toggle</title>
    <desc>Created with Sketch.</desc>
    <defs></defs>
    <g id="Editor-icons---v2" stroke="none" stroke-width="1" fill="none" fill-rule="evenodd">
        <g id="confluence/16px/page-layout-toggle" fill="#42526E">
            <path d="M11.5,11 L7.5,11 C7.22385763,11 7,10.7761424 7,10.5 L7,5.5 C7,5.22385763 7.22385763,5 7.5,5 L11.5,5 C11.7761424,5 12,5.22385763 12,5.5 L12,10.5 C12,10.7761424 11.7761424,11 11.5,11 Z" id="Rectangle-13-Copy-6"></path>
            <path d="M5.5,11 L4.5,11 C4.22385763,11 4,10.7761424 4,10.5 L4,5.5 C4,5.22385763 4.22385763,5 4.5,5 L5.5,5 C5.77614237,5 6,5.22385763 6,5.5 L6,10.5 C6,10.7761424 5.77614237,11 5.5,11 Z" id="Rectangle-13-Copy-7"></path>
            <path d="M2,4 L2,12 L14,12 L14,4 L2,4 Z M2,2 L14,2 C15.1045695,2 16,2.8954305 16,4 L16,12 C16,13.1045695 15.1045695,14 14,14 L2,14 C0.8954305,14 1.3527075e-16,13.1045695 0,12 L0,4 C-1.3527075e-16,2.8954305 0.8954305,2 2,2 Z" id="Rectangle-15" fill-rule="nonzero"></path>
        </g>
    </g>
</svg>