<?xml version="1.0" encoding="UTF-8"?>
<svg width="16px" height="16px" viewBox="0 0 16 16" version="1.1" xmlns="http://www.w3.org/2000/svg" xmlns:xlink="http://www.w3.org/1999/xlink">
    <!-- Generator: Sketch 48.2 (47327) - http://www.bohemiancoding.com/sketch -->
    <title>icon/16px/screen-16px</title>
    <desc>Created with Sketch.</desc>
    <defs>
        <path d="M2.80573475,9.11305684 L13.1942653,9.11305684 L13.1942653,3.1767537 L2.80573475,3.1767537 L2.80573475,9.11305684 Z M9.48407579,13.5652842 L9.84651928,13.5652842 C10.0561635,13.5652842 10.2261137,13.7373877 10.2261137,13.9363031 L10.2261137,14.3073221 L5.77388632,14.3073221 L5.77388632,13.9363031 C5.77388632,13.731395 5.94298227,13.5652842 6.15348072,13.5652842 L6.51592421,13.5652842 L6.51592421,11.3391705 L9.48407579,11.3391705 L9.48407579,13.5652842 Z M1.32165896,3.69101136 C1.32165896,2.58736227 2.21876851,1.69267791 3.32128922,1.69267791 L12.6787108,1.69267791 C13.7830761,1.69267791 14.678341,2.57902517 14.678341,3.69101136 L14.678341,8.59879918 C14.678341,9.70244827 13.7812315,10.5971326 12.6787108,10.5971326 L3.32128922,10.5971326 C2.21692393,10.5971326 1.32165896,9.71078537 1.32165896,8.59879918 L1.32165896,3.69101136 Z" id="path-1"></path>
    </defs>
    <g id="Symbols" stroke="none" stroke-width="1" fill="none" fill-rule="evenodd">
        <g id="icon/16px/screen">
            <mask id="mask-2" fill="white">
                <use xlink:href="#path-1"></use>
            </mask>
            <use id="Mask" fill="#3F4F71" fill-rule="nonzero" xlink:href="#path-1"></use>
        </g>
    </g>
</svg>