<?xml version="1.0" encoding="UTF-8"?>
<svg width="16px" height="16px" viewBox="0 0 16 16" version="1.1" xmlns="http://www.w3.org/2000/svg" xmlns:xlink="http://www.w3.org/1999/xlink">
    <!-- Generator: Sketch 48.2 (47327) - http://www.bohemiancoding.com/sketch -->
    <title>icon/16px/unlink-16px</title>
    <desc>Created with Sketch.</desc>
    <defs>
        <path d="M9.26412405,9.85029176 C9.57108654,10.1575614 9.57108654,10.6546624 9.26412405,10.961932 L7.54288413,12.684894 C6.91610209,13.3123032 6.0948569,13.6260077 5.27361171,13.6260077 C4.45236652,13.6260077 3.63112133,13.3123032 3.00433928,12.684894 L2.99710718,12.6776547 C1.74434666,11.4228364 1.74434666,9.38938736 2.99710718,8.1345691 L4.70549003,6.42447703 C5.01968462,6.11077247 5.52834236,6.11077247 5.84173338,6.42447703 L5.84414408,6.42689014 C6.15833867,6.74139908 6.1575351,7.25137009 5.84334051,7.56507466 L5.27521884,8.13215599 L5.27361171,8.13135162 L4.1823681,9.223687 C3.59656796,9.81007322 3.49049715,10.7656656 4.01442265,11.4075534 C4.33665291,11.8024994 4.78825741,12.0172664 5.27361171,12.0172664 C5.70191277,12.0172664 6.10369613,11.8499573 6.40664078,11.5475139 L8.13189854,9.8462699 C8.44689669,9.53578282 8.95234016,9.53819593 9.26412405,9.85029176 Z M6.41931928,5.83335396 C6.11235679,5.52608436 6.11235679,5.02898328 6.41931928,4.72171368 L8.1405592,2.99875168 C8.76734124,2.37134255 9.58858643,2.05763799 10.4098316,2.05763799 C11.2310768,2.05763799 12.052322,2.37134255 12.679104,2.99875168 L12.6863361,3.00599102 C13.9390967,4.26080928 13.9390967,6.29425836 12.6863361,7.54907662 L10.9779533,9.25916868 C10.6637587,9.57287325 10.155101,9.57287325 9.84170995,9.25916868 L9.83929925,9.25675557 C9.52510466,8.94224664 9.52590823,8.43227562 9.84010282,8.11857106 L10.4082245,7.55148973 L10.4098316,7.5522941 L11.5010752,6.45995872 C12.0868754,5.87357249 12.1929462,4.91798012 11.6690207,4.27609232 C11.3467904,3.88114632 10.8951859,3.66637935 10.4098316,3.66637935 C9.98153056,3.66637935 9.5797472,3.83368845 9.27680255,4.13693619 L7.55154479,5.83737581 C7.23654664,6.14786289 6.73110317,6.14544978 6.41931928,5.83335396 Z M5.30017702,1.74169823 L5.63152818,2.54156837 C5.80588004,2.96298755 5.60591251,3.44638015 5.18449332,3.620732 C4.76224783,3.79591017 4.27885523,3.59511633 4.10450338,3.17369714 L3.77315221,2.37382701 C3.59880036,1.95240782 3.79876789,1.46901523 4.22018707,1.29466337 C4.64243257,1.1194852 5.12582516,1.32027905 5.30017702,1.74169823 Z M2.37420579,3.77325341 L3.17407592,4.10460457 C3.59549511,4.27978274 3.79546264,4.76317533 3.62111078,5.18459452 C3.44593261,5.6060137 2.96254002,5.80598123 2.54112084,5.63162937 L1.7412507,5.30027821 C1.31983152,5.12510004 1.11986398,4.64170745 1.29421584,4.22028827 C1.46939401,3.79886908 1.9527866,3.59890155 2.37420579,3.77325341 Z M10.5809464,12.3784417 C10.6842354,12.3362998 10.7916559,12.315642 10.8965976,12.315642 C11.2213383,12.315642 11.5295527,12.5081727 11.6609363,12.8263029 L11.9922875,13.6253467 C12.1666393,14.0484185 11.9658455,14.5318111 11.5452526,14.7053366 C11.1230071,14.8805148 10.6396145,14.679721 10.4652627,14.2583018 L10.1330852,13.4584316 C9.95955964,13.0370124 10.1603535,12.5536199 10.5809464,12.3784417 Z M12.3790015,10.5820391 C12.5103852,10.2630826 12.8185996,10.0705519 13.1425139,10.0705519 C13.2482819,10.0705519 13.3548762,10.0912097 13.4581652,10.134178 L14.2588616,10.4655291 C14.6794545,10.6407073 14.8802483,11.1232736 14.7058965,11.5446928 C14.5307183,11.9669382 14.0464994,12.1669058 13.6259065,11.9925539 L12.8252101,11.6612028 C12.4046172,11.4860246 12.2038234,11.002632 12.3790015,10.5820391 Z" id="path-1"></path>
    </defs>
    <g id="Symbols" stroke="none" stroke-width="1" fill="none" fill-rule="evenodd">
        <g id="icon/16px/unlink">
            <mask id="mask-2" fill="white">
                <use xlink:href="#path-1"></use>
            </mask>
            <use id="Combined-Shape" fill="#42526E" xlink:href="#path-1"></use>
        </g>
    </g>
</svg>