<?xml version="1.0" encoding="UTF-8"?>
<svg width="16px" height="16px" viewBox="0 0 16 16" version="1.1" xmlns="http://www.w3.org/2000/svg" xmlns:xlink="http://www.w3.org/1999/xlink">
    <!-- Generator: Sketch 48.2 (47327) - http://www.bohemiancoding.com/sketch -->
    <title>icon/16px/watch-filled-16px</title>
    <desc>Created with Sketch.</desc>
    <defs>
        <path d="M8.00035007,2.4 C11.8636748,2.4 14.9999998,5.78799994 14.9999998,7.9999999 C14.9999998,10.1601999 11.7964379,13.5999998 8.00035007,13.5999998 C4.20426229,13.5999998 1,10.1601999 1,7.9999999 C1,5.78799994 4.13632493,2.4 8.00035007,2.4 Z M7.98844352,10.7887999 C9.53349328,10.7887999 10.7899843,9.53299988 10.7899843,7.9887999 C10.7899843,6.44459993 9.53349328,5.18879995 7.98844352,5.18879995 C6.44339377,5.18879995 5.18690273,6.44459993 5.18690273,7.9887999 C5.18690273,9.53299988 6.44339377,10.7887999 7.98844352,10.7887999 Z M7.99999988,9.39971988 C7.22680124,9.39971988 6.5999999,8.77291854 6.5999999,7.9997199 C6.5999999,7.22652127 7.22680124,6.59971993 7.99999988,6.59971993 C8.77319852,6.59971993 9.39999986,7.22652127 9.39999986,7.9997199 C9.39999986,8.77291854 8.77319852,9.39971988 7.99999988,9.39971988 Z" id="path-1"></path>
    </defs>
    <g id="Symbols" stroke="none" stroke-width="1" fill="none" fill-rule="evenodd">
        <g id="icon/16px/watch-filled">
            <mask id="mask-2" fill="white">
                <use xlink:href="#path-1"></use>
            </mask>
            <use id="watch-filled" fill="#3F4F71" xlink:href="#path-1"></use>
        </g>
    </g>
</svg>