<?xml version="1.0" encoding="UTF-8"?>
<svg width="24px" height="24px" viewBox="0 0 24 24" version="1.1" xmlns="http://www.w3.org/2000/svg" xmlns:xlink="http://www.w3.org/1999/xlink">
    <!-- Generator: Sketch 48.1 (47250) - http://www.bohemiancoding.com/sketch -->
    <title>icon/20px/Confluence-icon</title>
    <desc>Created with Sketch.</desc>
    <defs>
        <path d="M2.72526198,17.2679671 C6.34987224,11.1311305 11.0882785,10.9489794 16.6636228,13.7673539 C18.2133903,14.545636 19.9350006,15.3901548 20.8005792,15.8140701 C21.1163687,15.9645001 21.2579781,16.3506225 21.1188066,16.6817717 L19.1489789,21.3183455 C19.0796513,21.4822269 18.9495224,21.609915 18.7882499,21.6723085 C18.6269774,21.7347021 18.4483026,21.7264848 18.2929471,21.6495294 L14.1909958,19.6193724 C11.2187517,18.1422925 9.57033368,17.7978613 7.93146249,20.612924 C7.69915648,21.0136564 7.48594411,21.3878941 7.32046586,21.6760241 C7.233276,21.8287086 7.09081768,21.9385539 6.92507461,21.9808983 C6.75933155,22.0232427 6.58419159,21.9945381 6.43897592,21.9012291 L2.30201952,19.2517584 C2.00701323,19.0620738 1.91220744,18.6615203 2.08880715,18.3509383 C2.28610815,18.0263781 2.51841416,17.619022 2.72526198,17.2679671 Z M21.274738,6.74625645 C17.6501278,12.8764694 12.9117215,13.0652442 7.32364813,10.2501815 C5.77388062,9.47189948 4.0522703,8.62738068 3.18669173,8.20346536 C2.87090221,8.05303538 2.72929278,7.66691295 2.86846432,7.33576369 L4.83829202,2.69918989 C4.90761964,2.53530855 5.0377485,2.40762043 5.19902101,2.3452269 C5.36029352,2.28283336 5.53896833,2.29105068 5.69432376,2.36800605 L9.78354605,4.38822749 C12.7557901,5.86530743 14.4042081,6.20973863 16.0430793,3.39467596 C16.2753853,2.99394351 16.4885977,2.61970577 16.654076,2.33157583 C16.7422279,2.17242683 16.8899277,2.05852399 17.061888,2.01708027 C17.2338483,1.97563655 17.4146235,2.01037441 17.5610241,2.11299449 L21.6979805,4.76246523 C21.9929868,4.95214984 22.0877926,5.35270334 21.9111929,5.66328529 C21.7138919,5.98784545 21.4815858,6.39520158 21.274738,6.74625645 Z" id="path-1"></path>
    </defs>
    <g id="Symbols" stroke="none" stroke-width="1" fill="none" fill-rule="evenodd">
        <g id="icon/20px/Confluence-icon">
            <mask id="mask-2" fill="white">
                <use xlink:href="#path-1"></use>
            </mask>
            <use id="Combined-Shape" fill="#3F4F71" fill-rule="nonzero" xlink:href="#path-1"></use>
        </g>
    </g>
</svg>