<?xml version="1.0" encoding="UTF-8"?>
<svg width="24px" height="24px" viewBox="0 0 24 24" version="1.1" xmlns="http://www.w3.org/2000/svg" xmlns:xlink="http://www.w3.org/1999/xlink">
    <!-- Generator: Sketch 48.1 (47250) - http://www.bohemiancoding.com/sketch -->
    <title>icon/20px/detail-view</title>
    <desc>Created with Sketch.</desc>
    <defs>
        <path d="M2,6.58630538 L2,5.58630538 C2,5.0301702 2.4463856,4.58630538 2.99703014,4.58630538 L10,4.58630538 L10,6.58630538 L2,6.58630538 Z M2,10.5863054 L2,8.58630538 L10,8.58630538 L10,10.5863054 L2,10.5863054 Z M2,17.5863054 L2,16.5863054 L10,16.5863054 L10,18.5863054 L2.99703014,18.5863054 C2.45303631,18.5863054 2,18.1385901 2,17.5863054 Z M2,14.5863054 L2,12.5863054 L10,12.5863054 L10,14.5863054 L2,14.5863054 Z" id="path-1"></path>
    </defs>
    <g id="Symbols" stroke="none" stroke-width="1" fill="none" fill-rule="evenodd">
        <g id="icon/20px/detail-view">
            <mask id="mask-2" fill="white">
                <use xlink:href="#path-1"></use>
            </mask>
            <use id="detail-view" fill="#42526E" fill-rule="nonzero" xlink:href="#path-1"></use>
        </g>
    </g>
</svg>