<?xml version="1.0" encoding="UTF-8"?>
<svg width="24px" height="24px" viewBox="0 0 24 24" version="1.1" xmlns="http://www.w3.org/2000/svg" xmlns:xlink="http://www.w3.org/1999/xlink">
    <!-- Generator: Sketch 48.1 (47250) - http://www.bohemiancoding.com/sketch -->
    <title>icon/20px/vid-forward</title>
    <desc>Created with Sketch.</desc>
    <defs>
        <path d="M11.0033859,10.2503612 L11.0033859,4.54728714 C11.0033859,3.99271004 11.3474049,3.82916903 11.7717738,4.18509395 L20.6846506,11.6604645 C21.1053599,12.01332 21.101393,12.5787533 20.6676162,12.9165394 L11.7888082,19.8305514 C11.3510646,20.1714265 11.0033859,19.9914736 11.0033859,19.4355149 L11.0033859,14.2124913 L3.78880825,19.8305514 C3.35106456,20.1714265 3.00338592,19.9914736 3.00338592,19.4355149 L3.00338592,4.54728714 C3.00338592,3.99271004 3.3474049,3.82916903 3.77177382,4.18509395 L11.0033859,10.2503612 Z" id="path-1"></path>
    </defs>
    <g id="Symbols" stroke="none" stroke-width="1" fill="none" fill-rule="evenodd">
        <g id="icon/20px/vid-forward">
            <mask id="mask-2" fill="white">
                <use xlink:href="#path-1"></use>
            </mask>
            <use id="Combined-Shape" fill="#42526E" xlink:href="#path-1"></use>
        </g>
    </g>
</svg>